^C:\USERS\ALULAB14\DESKTOP\GIT\GRAFICOS-182\WIN\TEMPLATEGL\SOURCE\BASEREP.CPP
/c /I..\source /I"..\glm-0.9.7.3\glm" /I..\freeglut\include /I"..\glew-2.1.0\include" /ZI /nologo /W3 /WX- /sdl /Od /Oy- /D _CRT_SECURE_NO_WARNINGS /D _MBCS /Gm /EHsc /RTC1 /MDd /GS /fp:precise /Zc:wchar_t /Zc:forScope /Fo"DEBUG\\" /Fd"DEBUG\VC120.PDB" /Gd /TP /analyze- C:\USERS\ALULAB14\DESKTOP\GIT\GRAFICOS-182\WIN\TEMPLATEGL\SOURCE\BASEREP.CPP
^C:\USERS\ALULAB14\DESKTOP\GIT\GRAFICOS-182\WIN\TEMPLATEGL\SOURCE\SHADER_UTILS.CPP
/c /I..\source /I"..\glm-0.9.7.3\glm" /I..\freeglut\include /I"..\glew-2.1.0\include" /ZI /nologo /W3 /WX- /sdl /Od /Oy- /D _CRT_SECURE_NO_WARNINGS /D _MBCS /Gm /EHsc /RTC1 /MDd /GS /fp:precise /Zc:wchar_t /Zc:forScope /Fo"DEBUG\\" /Fd"DEBUG\VC120.PDB" /Gd /TP /analyze- C:\USERS\ALULAB14\DESKTOP\GIT\GRAFICOS-182\WIN\TEMPLATEGL\SOURCE\SHADER_UTILS.CPP
^C:\USERS\ALULAB14\DESKTOP\GRAFICOS-182\WIN\TEMPLATEGL\SOURCE\BASEREP.CPP
/c /I..\source\soil\src /I..\source /I"..\glm-0.9.7.3\glm" /I..\freeglut\include /I"..\glew-2.1.0\include" /ZI /nologo /W3 /WX- /sdl /Od /Oy- /D _CRT_SECURE_NO_WARNINGS /D _MBCS /Gm /EHsc /RTC1 /MDd /GS /fp:precise /Zc:wchar_t /Zc:forScope /Fo"DEBUG\\" /Fd"DEBUG\VC120.PDB" /Gd /TP /analyze- C:\USERS\ALULAB14\DESKTOP\GRAFICOS-182\WIN\TEMPLATEGL\SOURCE\BASEREP.CPP
^C:\USERS\ALULAB14\DESKTOP\GRAFICOS-182\WIN\TEMPLATEGL\SOURCE\SHADER_UTILS.CPP
/c /I..\source\soil\src /I..\source /I"..\glm-0.9.7.3\glm" /I..\freeglut\include /I"..\glew-2.1.0\include" /ZI /nologo /W3 /WX- /sdl /Od /Oy- /D _CRT_SECURE_NO_WARNINGS /D _MBCS /Gm /EHsc /RTC1 /MDd /GS /fp:precise /Zc:wchar_t /Zc:forScope /Fo"DEBUG\\" /Fd"DEBUG\VC120.PDB" /Gd /TP /analyze- C:\USERS\ALULAB14\DESKTOP\GRAFICOS-182\WIN\TEMPLATEGL\SOURCE\SHADER_UTILS.CPP
^C:\USERS\ALULAB14\DESKTOP\GRAFICOS-182\WIN\TEMPLATEGL\SOURCE\CUBE_TEXTURE.CPP
/c /I..\source\soil\src /I..\source /I"..\glm-0.9.7.3\glm" /I..\freeglut\include /I"..\glew-2.1.0\include" /ZI /nologo /W3 /WX- /sdl /Od /Oy- /D _CRT_SECURE_NO_WARNINGS /D _MBCS /Gm /EHsc /RTC1 /MDd /GS /fp:precise /Zc:wchar_t /Zc:forScope /Fo"DEBUG\\" /Fd"DEBUG\VC120.PDB" /Gd /TP /analyze- C:\USERS\ALULAB14\DESKTOP\GRAFICOS-182\WIN\TEMPLATEGL\SOURCE\CUBE_TEXTURE.CPP
^C:\USERS\ALULAB14\DESKTOP\GRAFICOS-182\WIN\TEMPLATEGL\SOURCE\IMAGE_DXT.CPP
/c /I..\source\soil\src /I..\source /I"..\glm-0.9.7.3\glm" /I..\freeglut\include /I"..\glew-2.1.0\include" /ZI /nologo /W3 /WX- /sdl /Od /Oy- /D _CRT_SECURE_NO_WARNINGS /D _MBCS /Gm /EHsc /RTC1 /MDd /GS /fp:precise /Zc:wchar_t /Zc:forScope /Fo"DEBUG\\" /Fd"DEBUG\VC120.PDB" /Gd /TP /analyze- C:\USERS\ALULAB14\DESKTOP\GRAFICOS-182\WIN\TEMPLATEGL\SOURCE\IMAGE_DXT.CPP
^C:\USERS\ALULAB14\DESKTOP\GRAFICOS-182\WIN\TEMPLATEGL\SOURCE\IMAGE_HELPER.CPP
/c /I..\source\soil\src /I..\source /I"..\glm-0.9.7.3\glm" /I..\freeglut\include /I"..\glew-2.1.0\include" /ZI /nologo /W3 /WX- /sdl /Od /Oy- /D _CRT_SECURE_NO_WARNINGS /D _MBCS /Gm /EHsc /RTC1 /MDd /GS /fp:precise /Zc:wchar_t /Zc:forScope /Fo"DEBUG\\" /Fd"DEBUG\VC120.PDB" /Gd /TP /analyze- C:\USERS\ALULAB14\DESKTOP\GRAFICOS-182\WIN\TEMPLATEGL\SOURCE\IMAGE_HELPER.CPP
^C:\USERS\ALULAB14\DESKTOP\GRAFICOS-182\WIN\TEMPLATEGL\SOURCE\SOIL.CPP
/c /I..\source\soil\src /I..\source /I"..\glm-0.9.7.3\glm" /I..\freeglut\include /I"..\glew-2.1.0\include" /ZI /nologo /W3 /WX- /sdl /Od /Oy- /D _CRT_SECURE_NO_WARNINGS /D _MBCS /Gm /EHsc /RTC1 /MDd /GS /fp:precise /Zc:wchar_t /Zc:forScope /Fo"DEBUG\\" /Fd"DEBUG\VC120.PDB" /Gd /TP /analyze- C:\USERS\ALULAB14\DESKTOP\GRAFICOS-182\WIN\TEMPLATEGL\SOURCE\SOIL.CPP
^C:\USERS\ALULAB14\DESKTOP\GRAFICOS-182\WIN\TEMPLATEGL\SOURCE\STB_IMAGE_AUG.CPP
/c /I..\source\soil\src /I..\source /I"..\glm-0.9.7.3\glm" /I..\freeglut\include /I"..\glew-2.1.0\include" /ZI /nologo /W3 /WX- /sdl /Od /Oy- /D _CRT_SECURE_NO_WARNINGS /D _MBCS /Gm /EHsc /RTC1 /MDd /GS /fp:precise /Zc:wchar_t /Zc:forScope /Fo"DEBUG\\" /Fd"DEBUG\VC120.PDB" /Gd /TP /analyze- C:\USERS\ALULAB14\DESKTOP\GRAFICOS-182\WIN\TEMPLATEGL\SOURCE\STB_IMAGE_AUG.CPP
